Initiation à R
…
tibble

Dans l’univers tidyverse, c’est l’utilisation du type tibble qui est privilégié. Pour information, la fonction tibble() sert à transformer un objet dans cette classe, ou à en créer un nouveau (pas vu ici).

library(tibble)
mtt = as_tibble(mtcars)
mtt

## # A tibble: 32 x 11
##      mpg   cyl  disp    hp  drat    wt  qsec    vs    am  gear  carb
##  * <dbl> <dbl> <dbl> <dbl> <dbl> <dbl> <dbl> <dbl> <dbl> <dbl> <dbl>
##  1  21.0     6 160.0   110  3.90 2.620 16.46     0     1     4     4
##  2  21.0     6 160.0   110  3.90 2.875 17.02     0     1     4     4
##  3  22.8     4 108.0    93  3.85 2.320 18.61     1     1     4     1
##  4  21.4     6 258.0   110  3.08 3.215 19.44     1     0     3     1
##  5  18.7     8 360.0   175  3.15 3.440 17.02     0     0     3     2
##  6  18.1     6 225.0   105  2.76 3.460 20.22     1     0     3     1
##  7  14.3     8 360.0   245  3.21 3.570 15.84     0     0     3     4
##  8  24.4     4 146.7    62  3.69 3.190 20.00     1     0     4     2
##  9  22.8     4 140.8    95  3.92 3.150 22.90     1     0     4     2
## 10  19.2     6 167.6   123  3.92 3.440 18.30     1     0     4     4
## # ... with 22 more rows
…
library(readr)
iris_txt = read_delim("Iris.txt", delim = "\t")

## Parsed with column specification:
## cols(
##   `Sepal Length` = col_double(),
##   `Sepal Width` = col_double(),
##   `Petal Length` = col_double(),
##   `Petal Width` = col_double(),
##   Species = col_character()
## )

iris_txt

## # A tibble: 150 x 5
##    `Sepal Length` `Sepal Width` `Petal Length` `Petal Width` Species
##             <dbl>         <dbl>          <dbl>         <dbl>   <chr>
##  1            5.1           3.5            1.4           0.2  setosa
##  2            4.9           3.0            1.4           0.2  setosa
##  3            4.7           3.2            1.3           0.2  setosa
##  4            4.6           3.1            1.5           0.2  setosa
##  5            5.0           3.6            1.4           0.2  setosa
##  6            5.4           3.9            1.7           0.4  setosa
##  7            4.6           3.4            1.4           0.3  setosa
##  8            5.0           3.4            1.5           0.2  setosa
##  9            4.4           2.9            1.4           0.2  setosa
## 10            4.9           3.1            1.5           0.1  setosa
## # ... with 140 more rows

Fichier Excel

Le package readxl permet donc de lire des fichiers Excel (quelque soit le format : xlsx ou xls). La fonction read_excel() détecte justement le format du fichier.

library(readxl)
iris_xlsx = read_excel("Iris.xlsx")
iris_xlsx

## # A tibble: 150 x 5
##    `Sepal Length` `Sepal Width` `Petal Length` `Petal Width` Species
##             <dbl>         <dbl>          <dbl>         <dbl>   <chr>
##  1            5.1           3.5            1.4           0.2  setosa
##  2            4.9           3.0            1.4           0.2  setosa
##  3            4.7           3.2            1.3           0.2  setosa
##  4            4.6           3.1            1.5           0.2  setosa
##  5            5.0           3.6            1.4           0.2  setosa
##  6            5.4           3.9            1.7           0.4  setosa
##  7            4.6           3.4            1.4           0.3  setosa
##  8            5.0           3.4            1.5           0.2  setosa
##  9            4.4           2.9            1.4           0.2  setosa
## 10            4.9           3.1            1.5           0.1  setosa
## # ... with 140 more rows

Fichier SAS

Enfin, pour importer des données SAS mais aussi SPSS et Stata, il existe le package haven, avec la fonction read_sas().

library(haven)
iris_sas = read_sas("Iris.sas7bdat")
iris_sas

## # A tibble: 150 x 5
##    Sepal_Length Sepal_Width Petal_Length Petal_Width Species
##           <dbl>       <dbl>        <dbl>       <dbl>   <chr>
##  1          5.1         3.5          1.4         0.2  setosa
##  2          4.9         3.0          1.4         0.2  setosa
##  3          4.7         3.2          1.3         0.2  setosa
##  4          4.6         3.1          1.5         0.2  setosa
##  5          5.0         3.6          1.4         0.2  setosa
##  6          5.4         3.9          1.7         0.4  setosa
##  7          4.6         3.4          1.4         0.3  setosa
##  8          5.0         3.4          1.5         0.2  setosa
##  9          4.4         2.9          1.4         0.2  setosa
## 10          4.9         3.1          1.5         0.1  setosa
## # ... with 140 more rows
…
